Just Enough R – SISMID Module 2 Materials (2024)
…
Instead, we reshape this into a long dataframe so that there is a column for the state ID, a column for the month, and a column for the incidence (that is associated with both the state and the month). Using the tidyr package, we could reshape this wide dataframe to be a long dataframe (see this section for more information about the pivot_*() functions)

long_df <- tidyr::pivot_longer(
    wide_df,
    cols = c(july_inc, aug_inc),
    names_to = "month",
    values_to = "incidence",
    # Extract only the month using regex
    names_pattern = "(.*)_inc"
)

long_df

# A tibble: 104 × 3
   state_id month incidence
      <int> <chr>     <int>
 1        1 july        399
 2        1 aug         613
 3        2 july        409
 4        2 aug         578
 5        3 july        381
 6        3 aug         604
 7        4 july        381
 8        4 aug         607
 9        5 july        387
10        5 aug         603
# ℹ 94 more rows
…
We can filter using OR statements (|), so if either condition returns TRUE, then it will be included in the subset.

filter(
    long_df,
    month == "july" | incidence > 600
)

# A tibble: 78 × 3
   state_id month incidence
      <int> <chr>     <int>
 1        1 july        399
 2        1 aug         613
 3        2 july        409
 4        3 july        381
 5        3 aug         604
 6        4 july        381
 7        4 aug         607
 8        5 july        387
 9        5 aug         603
10        6 july        372
# ℹ 68 more rows
…
paste0()

The paste0() function is useful for manipulating objects and coercing them into string, allowing us to do string interpolation. It comes installed with base R, so there’s nothing to install, and because of the way mutate() works, apply functions to each row simultaneously, we can modify whole columns at once, depending on the row’s original values. It works to squish all the values together, without any separators by default. If you wanted spaces between your words, for example, you can use the paste(..., sep = " ") function, which takes the sep argument.

char_df <- mutate(
    long_df,
    # Notice that text is in commas, and object values being passed to paste0()
    # are unquoted.
    state_id = paste0("state_", state_id)
)

char_df

# A tibble: 104 × 3
   state_id month incidence
   <chr>    <chr>     <int>
 1 state_1  july        399
 2 state_1  aug         613
 3 state_2  july        409
 4 state_2  aug         578
 5 state_3  july        381
 6 state_3  aug         604
 7 state_4  july        381
 8 state_4  aug         607
 9 state_5  july        387
10 state_5  aug         603
# ℹ 94 more rows

glue::glue()

glue() is a function that comes installed with tidyverse, but is not loaded automatically, so you have to reference it explicitly by either using library(glue) or the :: notation shown below. It serves the same purpose as the base paste0(), but in a slightly different syntax. Instead of using a mix of quotations and unquoted object names, glue() requires everything to be in quotation marks, with any value being passed to the string interpolation being enclosed in { }. It is worth learning glue() as it is used throughout the tidyverse packages, such as in the pivot_wider() function.

char_df <- mutate(
    long_df,
    state_id = glue::glue("state_{state_id}")
)

char_df

# A tibble: 104 × 3
   state_id month incidence
   <glue>   <chr>     <int>
 1 state_1  july        399
 2 state_1  aug         613
 3 state_2  july        409
 4 state_2  aug         578
 5 state_3  july        381
 6 state_3  aug         604
 7 state_4  july        381
 8 state_4  aug         607
 9 state_5  july        387
10 state_5  aug         603
# ℹ 94 more rows

str_replace_all()

If we want to replace characters throughout the whole of a string vector, we can do that with the str_replace_all() function. And because dataframes are made up of individual vectors, we can use this to modify vectors.

mutate(
    char_df,
    # pass in the vector (a column, here), the pattern to remove, and the replacement
    clean_state_id = str_replace_all(state_id, "state_", "")
)

# A tibble: 104 × 4
   state_id month incidence clean_state_id
   <glue>   <chr>     <int> <chr>         
 1 state_1  july        399 1             
 2 state_1  aug         613 1             
 3 state_2  july        409 2             
 4 state_2  aug         578 2             
 5 state_3  july        381 3             
 6 state_3  aug         604 3             
 7 state_4  july        381 4             
 8 state_4  aug         607 4             
 9 state_5  july        387 5             
10 state_5  aug         603 5             
# ℹ 94 more rows
…
The %>% operator is an interesting and very useful function that comes installed (and loaded) with the tidyverse package (technically from the magrittr package from within the tidyverse). It allows us to chain together operations without needing to create intermediate objects. Say for example we have our wide incidence data and want to add data for September before turning it into a long dataframe, we could create and intermediate object before using the pivot_longer() function from before, but we might not want to create another object that we don’t really care about. This is when we would want to use a pipe, as it takes the output of one operation and pipes it into the next one.

mutate(
    wide_df,
    sep_inc = round(aug_inc * 1.2 + rnorm(52, 0, 10), digits = 0)
    ) %>%
    pivot_longer(
        cols = c(july_inc, aug_inc, sep_inc),
        names_to = "month",
        values_to = "incidence",
        names_pattern = "(.*)_inc",
        data = .
    )

# A tibble: 156 × 3
   state_id month incidence
      <int> <chr>     <dbl>
 1        1 july        399
 2        1 aug         613
 3        1 sep         725
 4        2 july        409
 5        2 aug         578
 6        2 sep         685
 7        3 july        381
 8        3 aug         604
 9        3 sep         710
10        4 july        381
# ℹ 146 more rows
…
pivot_*()

We’ve already seen the purpose of the pivot_longer() function: taking wide data and reshaping it to be long. There is an equivalent to go from long to wide: pivot_wider(). Occassionally this is useful (though it is less common than creating long data).

pivot_wider(
    long_df,
    names_from = month,
    values_from = incidence,
    names_glue = "{month}_inc"
)

# A tibble: 52 × 3
   state_id july_inc aug_inc
      <int>    <int>   <int>
 1        1      399     613
 2        2      409     578
 3        3      381     604
 4        4      381     607
 5        5      387     603
 6        6      372     614
 7        7      403     597
 8        8      407     605
 9        9      388     604
10       10      422     595
# ℹ 42 more rows
…
